name="Astronomical Emblem Pack"
path="mod/astronomical_emblems"
tags={
	"40k"
	"Athens"
	"Battlestar"
	"Bundeswehr"
	"Celtic"
	"Combine"
	"Customization"
	"Deutsch"
	"Egyptian"
	"Elite Dangerous"
	"Emblems"
	"Eve"
	"Flags"
	"German"
	"Greek"
	"Half-Life"
	"Halo"
	"Homeworld"
	"Magic the Gathering"
	"Mass Effect"
	"MtG"
	"Red Rising"
	"Roman"
	"Rome"
	"Species"
	"SPQR"
	"Star Trek"
	"Star Wars"
	"Stargate"
	"Warhammer"
}
picture="astronomical.jpg"
supported_version="2.5.*"
